{
 "font": {
  "fileName": "Flamingo-Regular"
 }, 
 "generator": {
  "contextualShape": true, 
  "insideCornerRadius": 6, 
  "offset": 0, 
  "outsideCornerRadius": 0, 
  "width": 125
 }, 
 "inherit": [
  "./options/options.jsn"
 ], 
 "metadata": {
  "familyname": "Flamingo", 
  "fontname": "Flamingo-Regular", 
  "fullname": "Flamingo Regular", 
  "more": {
   "English": {
    "Descriptor": "Created at the Type:Bits workshop in Tomelloso (2016).", 
    "Designer": "Guillermo T. Lopez, Paqui V. Jimenez, Noelia M. Navarro, Maria Jose F. Delgado, Esther A. Jimenez, Sara M. Brox, Juan Antonio F. Duran", 
    "Designer URL": "", 
    "License": "OFL", 
    "License URL": "http://scripts.sil.org/OFL", 
    "Manufacturer": "Manufactura Independente", 
    "SubFamily": "Regular", 
    "Trademark": "", 
    "Vendor URL": "http://manufacturaindependente.org"
   }
  }, 
  "weight": "Regular"
 }
}
